data-viz - Slide presentations
…
near(pi, 355/113, tol = 1e-6)

[1] TRUE

pi - 355/113

[1] -2.667642e-07

Combining two tables

t1 <- gapminder |> group_by(country) |> summarize(max_life_exp = max(lifeExp)) 
t1

# A tibble: 142 × 2
   country     max_life_exp
   <fct>              <dbl>
 1 Afghanistan         43.8
 2 Albania             76.4
 3 Algeria             72.3
 4 Angola              42.7
 5 Argentina           75.3
 6 Australia           81.2
 7 Austria             79.8
 8 Bahrain             75.6
 9 Bangladesh          64.1
10 Belgium             79.4
# ℹ 132 more rows
…
Item X

Item Y

Item Z

Translating English to dplyr

Make a table that counts the number of observations per country.

library(gapminder)
gapminder |> group_by(country) |> summarize(n_observations = n())

# A tibble: 142 × 2
   country     n_observations
   <fct>                <int>
 1 Afghanistan             12
 2 Albania                 12
 3 Algeria                 12
 4 Angola                  12
 5 Argentina               12
 6 Australia               12
 7 Austria                 12
 8 Bahrain                 12
 9 Bangladesh              12
10 Belgium                 12
# ℹ 132 more rows

gapminder |> count(country)

# A tibble: 142 × 2
   country         n
   <fct>       <int>
 1 Afghanistan    12
 2 Albania        12
 3 Algeria        12
 4 Angola         12
 5 Argentina      12
 6 Australia      12
 7 Austria        12
 8 Bahrain        12
 9 Bangladesh     12
10 Belgium        12
# ℹ 132 more rows

gapminder |> count(is.na(country))

# A tibble: 1 × 2
  `is.na(country)`     n
  <lgl>            <int>
1 FALSE             1704

gapminder |> group_by(country) |> 
  summarize(n_missing_lifeExp = sum(is.na(lifeExp)) )

# A tibble: 142 × 2
   country     n_missing_lifeExp
   <fct>                   <int>
 1 Afghanistan                 0
 2 Albania                     0
 3 Algeria                     0
 4 Angola                      0
 5 Argentina                   0
 6 Australia                   0
 7 Austria                     0
 8 Bahrain                     0
 9 Bangladesh                  0
10 Belgium                     0
# ℹ 132 more rows

Translating English to dplyr

Find the country with the highest and lowest life expectancy in each year.

table3 <- gapminder |> group_by(year) |> mutate(max_life_exp = max(lifeExp),
                                      min_life_exp = min(lifeExp)) |>
  filter(near(lifeExp, max_life_exp) | near(lifeExp, min_life_exp)) 
table3

# A tibble: 24 × 8
# Groups:   year [12]
   country    continent  year lifeExp    pop gdpPercap max_life_exp min_life_exp
   <fct>      <fct>     <int>   <dbl>  <int>     <dbl>        <dbl>        <dbl>
 1 Afghanist… Asia       1952    28.8 8.43e6      779.         72.7         28.8
 2 Afghanist… Asia       1957    30.3 9.24e6      821.         73.5         30.3
 3 Afghanist… Asia       1962    32.0 1.03e7      853.         73.7         32.0
 4 Afghanist… Asia       1967    34.0 1.15e7      836.         74.2         34.0
 5 Angola     Africa     1987    39.9 7.87e6     2430.         78.7         39.9
 6 Cambodia   Asia       1977    31.2 6.98e6      525.         76.1         31.2
 7 Iceland    Europe     1957    73.5 1.65e5     9244.         73.5         30.3
 8 Iceland    Europe     1962    73.7 1.82e5    10350.         73.7         32.0
 9 Iceland    Europe     1977    76.1 2.22e5    19655.         76.1         31.2
10 Japan      Asia       1982    77.1 1.18e8    19384.         77.1         38.4
# ℹ 14 more rows
…
